Tenjiku Shogi  (Exotic Shogi)
Tenjbord.bmp
0,16,0,5,100,21,26,156,132,132
1,King,K,999,0,0,1,0,1,1,1,1,1,1,1,1,G,1,0
2,Pawn,P,1,6,22,5,66,1,0,0,0,0,0,0,0,1,5,0
3,Lance,L,3,10,30,7,45,64,0,0,0,0,0,0,0,1,4,1
4,Silver General,S,5,8,39,9,49,1,0,0,0,1,1,1,1,0,3,0
5,Gold General,G,6,12,35,3,54,1,1,1,1,1,1,0,0,0,3,0
6,Copper General,C,4,8,32,12,59,1,1,0,0,1,1,0,0,0,3,0
7,Bishop,B,10,14,31,4,61,0,0,0,0,64,64,64,64,0,2,1
8,Rook,R,12,15,38,2,60,64,64,64,64,0,0,0,0,0,2,1
9,Blind Tiger,BT,7,10,24,10,46,0,1,1,1,1,1,1,1,0,3,0
10,Dragon Horse,DH,14,21,27,8,58,1,1,1,1,64,64,64,64,0,2,1
11,Dragon King,DK,15,22,28,6,57,64,64,64,64,1,1,1,1,0,2,1
12,Drunk Elephant,DE,7,50,23,14,63,1,0,1,1,1,1,1,1,0,2,0
13,Ferocious Leopard,FL,6,10,33,15,56,1,1,0,0,1,1,1,1,0,3,0
14,Free King,FK,22,24,40,16,55,64,64,64,64,64,64,64,64,0,2,1
15,Knight,N,3,8,41,26,39,1024,0,0,0,0,0,0,0,2,4,0
16,Kylin,Ky,8,32,36,17,52,128,128,128,128,1,1,1,1,0,2,0
17,Phoenix,Ph,8,22,37,19,51,1,1,1,1,128,128,128,128,0,2,0
18,Lion,Ln,32,26,47,18,37,0,0,0,0,0,0,0,0,L,2,0
19,Reverse Chariot,RC,6,10,29,20,44,64,64,0,0,0,0,0,0,0,4,1
20,Side Mover,SM,8,15,26,21,42,1,1,64,64,0,0,0,0,0,4,1
21,Vertical Mover,VM,8,15,25,11,64,64,64,1,1,0,0,0,0,0,4,1
22,Tokin,+P,6,0,0,66,0,1,1,1,1,1,1,0,0,0,5,0
23,Crown Prince,CP,50,0,0,63,0,1,1,1,1,1,1,1,1,C,2,0
24,Flying Stag,FS,10,0,0,46,0,64,64,1,1,1,1,1,1,0,3,1
25,Flying Ox,FO,15,0,0,64,0,64,64,0,0,64,64,64,64,0,3,1
26,Free Boar,FBo,15,0,0,42,0,0,0,64,64,64,64,64,64,0,3,1
27,Horned Falcon,HF,22,0,0,58,0,512,64,64,64,64,64,64,64,0,2,1
28,Soaring Eagle,SE,23,0,0,57,0,64,64,64,64,512,512,64,64,0,2,1
29,Whale,W,10,0,0,44,0,64,64,0,0,0,0,64,64,0,4,1
30,White Horse,WH,10,0,0,45,0,64,64,0,0,64,64,0,0,0,4,1
31,Dragon Horse,DH,14,0,0,61,0,1,1,1,1,64,64,64,64,0,2,1
32,Side Mover,SM,8,0,0,59,0,1,1,64,64,0,0,0,0,0,4,1
33,Bishop,B,10,0,0,56,0,0,0,0,0,64,64,64,64,0,3,1
34,Dog,Dg,3,8,46,13,43,1,0,0,0,0,0,1,1,0,5,0
35,Rook,R,12,0,0,54,0,64,64,64,64,0,0,0,0,0,3,1
36,Lion,Ln,32,0,0,52,0,0,0,0,0,0,0,0,0,L,2,0
37,Free King,FK,22,0,0,51,0,64,64,64,64,64,64,64,64,0,2,1
38,Dragon King,DK,15,0,0,60,0,64,64,64,64,1,1,1,1,0,2,1
39,Vertical Mover,VM,8,0,0,49,0,64,64,1,1,0,0,0,0,0,4,1
40,Free Eagle,FEg,24,0,0,55,0,192,192,192,192,64,64,64,64,0,2,1
41,Side Soldier,SSo,8,0,0,39,0,2,1,64,64,0,0,0,0,0,3,1
42,Bishop General,BGn,30,0,0,53,0,0,0,0,0,320,320,320,320,G,2,1
43,Rook General,RGn,36,0,0,38,0,320,320,320,320,0,0,0,0,G,2,1
44,Horned Falcon,HF,22,30,42,22,53,512,64,64,64,64,64,64,64,0,2,1
45,Soaring Eagle,SE,23,36,43,23,38,64,64,64,64,512,512,64,64,0,2,1
46,Multi General,MGn,8,0,0,43,0,64,0,0,0,0,0,64,64,0,5,1
47,Lion Hawk,LHk,26,0,0,37,0,0,0,0,0,64,64,64,64,D,2,1
48,Iron General,I,3,7,49,29,40,1,0,0,0,1,1,0,0,1,3,0
49,Vertical Soldier,VSo,7,0,0,40,0,64,1,2,2,0,0,0,0,0,3,1
50,Chariot Soldier,ChS,18,20,51,25,62,64,64,2,2,64,64,64,64,0,3,1
51,Heavenly Tetrarchs,HT,20,0,0,62,0,0,0,131,131,64,64,64,64,T,3,1
52,Free Eagle,FEg,24,0,0,27,0,192,192,192,192,64,64,64,64,0,2,1
53,Water Buffalo,WBf,18,120,54,32,65,2,2,64,64,64,64,64,64,0,2,1
54,Fire Demon,FiD,150,0,0,65,0,64,64,0,0,64,64,64,64,F,2,1
55,Vertical Soldier,VSo,7,18,56,33,41,64,1,2,2,0,0,0,0,0,3,1
56,Chariot Soldier,ChS,18,0,0,41,0,64,64,2,2,64,64,64,64,0,3,1
57,Side Soldier,SSo,8,18,58,34,47,2,1,64,64,0,0,0,0,0,3,1
58,Water Buffalo,WBf,18,0,0,47,0,2,2,64,64,64,64,64,64,0,4,1
59,Bishop General,BGn,30,48,60,24,48,0,0,0,0,320,320,320,320,G,2,1 
60,Vice General,VGn,48,0,0,48,0,0,0,0,0,320,320,320,320,G,2,1
61,Rook General,RGn,36,60,62,35,50,320,320,320,320,0,0,0,0,G,2,1
62,Great General,GGn,60,0,0,50,0,320,320,320,320,320,320,320,320,G,2,1
63,Vice General,VGn,48,0,0,31,0,0,0,0,0,320,320,320,320,G,2,1
64,Lion Hawk,LHk,26,0,0,36,0,0,0,0,0,64,64,64,64,D,2,1
65,Great General,GGn,60,0,0,28,0,320,320,320,320,320,320,320,320,G,2,1
66,Fire Demon,FiD,150,0,0,30,0,64,64,0,0,64,64,64,64,F,2,1
-3,-15,-13,-48,-6,-4,-5,-12,-1,-5,-4,-6,-48,-13,-15,-3
-19,0,-50,-50,0,-9,-17,-14,-18,-16,-9,0,-50,-50,0,-19
-57,-55,-7,-10,-11,-53,-66,-52,-64,-66,-53,-11,-10,-7,-55,-57
-20,-21,-8,-44,-45,-59,-61,-63,-65,-61,-59,-45,-44,-8,-21,-20
-2,-2,-2,-2,-2,-2,-2,-2,-2,-2,-2,-2,-2,-2,-2,-2,0,0,0,0,-34,0,0,0,0,0,0,-34,0,0,0,0
0,0,0,0,0,0,0,0,0,0,0,0,0,0,0,0,0,0,0,0,0,0,0,0,0,0,0,0,0,0,0,0,0,0,0,0,0,0,0,0,0,0,0,0,0,0,0,0,0,0,0,0,0,0,0,0,0,0,0,0,0,0,0,0,0,0,0,0
34,0,0,0,0,0,0,34,0,0,0,0,2,2,2,2,2,2,2,2,2,2,2,2,2,2,2,2
20,21,8,44,45,59,61,65,63,61,59,45,44,8,21,20
57,55,7,10,11,53,66,64,52,66,53,11,10,7,55,57
19,0,50,50,0,9,16,18,14,17,9,0,50,50,0,19,3,15,13,48,6,4,5,1,12,5,4,6,48,13,15,3
5

25,25,17,8,4,4,3,3,2,2,2,1,1,1,1,2,2,3,3,4,4,5,11,20,25

25,20,14,7,5,4,4,4,3,3,3,2,2,2,2,2,3,3,3,4,4,6,12,19,25

25,25,25,18,10,6,5,5,5,4,4,4,3,3,3,4,4,4,5,5,6,8,14,20,25

25,25,25,17,13,8,7,6,6,5,5,5,4,4,5,5,6,6,7,7,8,13,20,25,25

25,25,25,20,13,8,7,7,6,6,6,5,5,5,6,6,6,7,7,8,10,20,25,25,25

